report
…
targets::tar_load(fit0_draws_anova)
pred0_draws <- create_stan_tab(fit0_draws_anova)
pred0_draws
#> # A tibble: 77 × 6
#>    para         mean_    q2_5     q5    q95 q97_5
#>    <chr>        <dbl>   <dbl>  <dbl>  <dbl> <dbl>
#>  1 alpha_raw_1 -0.528 -1.60   -1.42  0.131  0.453
#>  2 alpha_raw_2 -0.187 -1.18   -0.997 0.445  0.769
#>  3 alpha_raw_3  1.40   0.0648  0.248 2.36   2.92 
#>  4 alpha_raw_4 -0.318 -1.38   -1.20  0.325  0.621
#>  5 alpha_raw_5 -0.373 -1.39   -1.22  0.272  0.583
#>  6 alpha_1     -0.325 -1.19   -0.962 0.0937 0.394
#>  7 alpha_2     -0.121 -0.916  -0.710 0.297  0.607
#>  8 alpha_3      0.826  0.0603  0.214 1.27   1.58 
#>  9 alpha_4     -0.199 -1.02   -0.820 0.220  0.510
#> 10 alpha_5     -0.232 -1.05   -0.860 0.183  0.529
#> # … with 67 more rows
…
sp_lab <- as.factor(d$species) |> levels()
pres_lab <- as.factor(d$pressure) |> levels()
int_lab <- as.factor(d2$jk) |> levels()

para_name <- c(sp_lab, pres_lab, rep(int_lab, 3), "mu")

targets::tar_load(fit1_summary_anova)
targets::tar_load(fit2_summary_anova)
#knitr::knit_exit()

fit1_summary_anova
#> # A tibble: 85 × 11
#>    variable     mean  median    sd   mad      q5     q95  rhat ess_bulk ess_tail
#>    <chr>       <dbl>   <dbl> <dbl> <dbl>   <dbl>   <dbl> <dbl>    <dbl>    <dbl>
#>  1 lp__      -69.6   -69.3   4.50  4.45  -77.6   -62.7    1.00    1086.    1737.
#>  2 mu_hat      1.29    1.28  0.963 0.712  -0.164   2.77   1.00    1425.    1030.
#>  3 sigma       2.06    2.04  0.244 0.239   1.70    2.51   1.00    4024.    2672.
#>  4 alpha_ra…   0.249   0.260 0.802 0.743  -1.04    1.55   1.00    3368.    2839.
#>  5 alpha_ra…  -0.367  -0.372 0.786 0.748  -1.63    0.922  1.00    3518.    2926.
#>  6 alpha_ra…  -0.335  -0.345 0.776 0.749  -1.59    0.930  1.00    3280.    2645.
#>  7 alpha_ra…   0.838   0.834 0.829 0.770  -0.519   2.20   1.00    3042.    2324.
#>  8 alpha_ra…  -0.380  -0.374 0.784 0.721  -1.65    0.922  1.00    3323.    2615.
#>  9 beta_raw…   0.282   0.276 0.828 0.802  -1.07    1.63   1.00    2614.    2685.
#> 10 beta_raw…  -0.360  -0.364 0.820 0.809  -1.71    1.01   1.00    3227.    2709.
#> # … with 75 more rows, and 1 more variable: .join_data <dbl>
fit2_summary_anova
#> # A tibble: 85 × 11
#>    variable    mean  median     sd    mad      q5    q95  rhat ess_bulk ess_tail
#>    <chr>      <dbl>   <dbl>  <dbl>  <dbl>   <dbl>  <dbl> <dbl>    <dbl>    <dbl>
#>  1 lp__     16.8    16.9    5.00   4.85    8.17   24.9    1.00     951.   1564. 
#>  2 mu_hat    0.324   0.327  0.290  0.170  -0.0954  0.748  1.03     169.     99.2
#>  3 sigma     0.272   0.269  0.0355 0.0333  0.220   0.336  1.00    2399.   2192. 
#>  4 alpha_r… -0.714  -0.692  0.664  0.637  -1.83    0.326  1.00    2225.   1998. 
#>  5 alpha_r… -0.749  -0.737  0.676  0.661  -1.88    0.330  1.01    1412.   2019. 
#>  6 alpha_r…  0.720   0.706  0.652  0.628  -0.320   1.81   1.00    2012.   2027. 
#>  7 alpha_r…  0.396   0.372  0.626  0.581  -0.582   1.46   1.01    2028.   2847. 
#>  8 alpha_r…  0.371   0.354  0.641  0.585  -0.649   1.47   1.01    2258.   2632. 
#>  9 beta_ra…  0.0614  0.0610 0.793  0.764  -1.29    1.39   1.01     741.    457. 
#> 10 beta_ra… -0.248  -0.243  0.803  0.793  -1.58    1.08   1.01     817.   1627. 
#> # … with 75 more rows, and 1 more variable: .join_data <dbl>
…
